<?xml version="1.0" encoding="utf-8"?>
<!-- Generator: Adobe Illustrator 16.0.0, SVG Export Plug-In . SVG Version: 6.00 Build 0)  -->
<!DOCTYPE svg PUBLIC "-//W3C//DTD SVG 1.1//EN" "http://www.w3.org/Graphics/SVG/1.1/DTD/svg11.dtd">
<svg version="1.1" id="圖層_1" xmlns="http://www.w3.org/2000/svg" xmlns:xlink="http://www.w3.org/1999/xlink" x="0px" y="0px"
	 width="100px" height="100px" viewBox="0 0 100 100" enable-background="new 0 0 100 100" xml:space="preserve">
<rect fill="#6EB7BB" width="100" height="100"/>
<circle fill="#FFFFFF" cx="51.066" cy="30.948" r="22.493"/>
<path fill="#FFFFFF" d="M14.191,100h73.75c0-21.43-9.497-39.773-22.965-47.396c-4.013,2.583-8.784,4.087-13.911,4.087
	c-5.125,0-9.897-1.504-13.909-4.087C23.688,60.227,14.191,78.57,14.191,100z"/>
</svg>
